{
  "data": {
    "username": "modrealmscore",
    "password": "mj754Z9!68xt^5ZBiStyrxRGu3To^oY5HEAvPaNY3$2Koy59eM2U4fx$FW$!rKLsi!^TSd",
    "database": "modrealms",
    "host": "modrealms.net",
    "auth-source": "admin",
    "enabled": true
  }
}